…
I figured the problem of splitting the data like this was breaking the data set from Alabama to Georgia. And I wouldn't be able to do a correlation between, for instance, Alabama and Virginia.

I filtered the data set to see the ozone levels in Florida on July 9, 2016 at 6am for all counties

    > filter(ozone, State.Name == "Florida", 
    Date.Local == "2016-07-09", 
    Time.Local == "06:00") %>% select(County.Name, 
        Sample.Measurement)

The result was:

    # A tibble: 58 x 2
       County.Name Sample.Measurement
             <chr>              <dbl>
     1     Alachua              0.002
     2       Baker              0.001
     3         Bay              0.017
     4     Brevard              0.014
     5     Brevard              0.016
     6     Broward              0.005
     7     Broward              0.004
     8     Broward              0.004
     9     Broward              0.008
    10     Collier              0.004
    # ... with 48 more rows
…
